1.349269	2.661196	OTWORZ
2.881786	3.880244	WLACZ
4.228543	5.273441	SWIATLO
5.911990	6.875618	TELEWIZOR
7.444507	8.408135	ZAMKNIJ
9.023464	9.696843	KUCHNI
10.184462	11.043600	NA
11.775029	12.622557	DRZWI
13.319156	14.271174	LAZIENCE
14.770403	15.629541	WYLACZ
16.163600	16.964689	W
17.638067	18.578475	OKNO
19.031264	19.890403	PIEKARNIK
20.331582	21.271990	ROLETY
21.759609	22.874167	TEMPERATURE
23.535936	24.453124	RADIO
25.068453	25.625732	DO
26.299110	27.262738	POKOJU
27.982557	28.934575	USTAW
29.607954	30.478702	SYPIALNI
31.105641	32.173759	PRALKE
32.626548	33.566956	GARAZU
34.240335	35.053033	ALARM
35.633532	36.399791	BRAME
37.166049	37.920698	CZAJNIK
38.570856	39.499655	ZGAS
39.952444	40.950902	ZAPAL
41.519791	42.506639	SALONIE
43.121967	43.899836	WODE
44.457115	45.397523	KOMPUTER
46.070902	47.057750	PODNIES
47.556979	48.485777	ZWIEKSZ
48.845686	50.029904	OGRZEWANIE
50.540743	51.527591	PRZEDPOKOJU
52.015210	53.129768	KLIMATYZACJE
53.745097	54.557795	ZMIEN
55.068634	55.904552	OKNA
56.368952	57.239700	MUZYKE
57.657659	58.586457	ZMYWARKE
59.004416	59.851945	PIWNICY
60.444054	61.279972	ZMNIEJSZ
62.081060	62.986639	ZASLON
63.439428	64.263736	KANAL
64.948725	65.900743	OPUSC
66.283872	67.119791	ZASUN
67.653850	68.512988	LODOWKE
69.093487	69.941015	ZAGOTUJ
70.753713	71.438702	PODLEJ
72.065641	73.122149	BUDZIK
73.412398	74.526956	ZALUZJE
74.956525	75.850494	PODGLOSNIJ
76.605142	77.243691	KAWE
78.149269	78.671718	O
79.426367	80.331945	ODSLON
80.947274	81.852852	EKSPRES
82.177931	83.048679	JEDEN
83.640788	84.639246	KORYTARZU
85.324235	86.078884	GARAZ
86.531673	87.564961	STRYCHU
88.157069	89.062648	PRZYCIEMNIJ
89.527047	90.479065	PRZYCISZ
91.001514	91.779382	UCHYL
92.394711	93.427999	ROZJASNIJ
93.915618	94.902466	ZABLOKUJ
95.448135	96.400153	STOPNI
96.887772	97.816571	ZROB
98.327410	99.186548	DOMU
99.801877	100.719065	HERBATE
101.264734	102.147092	SPRAWDZ
102.576661	103.517069	PRZYGOTUJ
104.074348	105.014757	SCHODACH
105.769405	106.593713	PODAJ
107.267092	108.416480	SUSZARKE
108.834439	109.948997	WEJSCIOWE
110.448226	111.458294	LAZIENKI
111.899473	112.781831	WODY
113.466820	114.337568	ZEWNATRZ
115.103827	115.777206	DWA
116.392534	117.425822	ZADZWON
117.936661	118.935119	SPUSC
119.399518	120.316707	CZTERY
121.001695	121.907274	GLOSNIEJ
122.545822	123.393351	PROGRAM
124.275709	125.111627	SCISZ
125.715346	127.027274	STOPIEN
127.422013	128.141831	Z
128.722330	129.825278	GARDEROBIE
130.440607	131.357795	ZAKREC
131.787364	132.878702	LAMPKE
133.331491	134.248679	TARASIE
134.829178	135.850856	LOZKO
136.315255	137.244054	GABINECIE
137.847772	138.695301	KWIATKI
139.194530	140.227818	OSWIETLENIE
140.831537	141.574575	TRZY
142.317614	143.292852	STACJE
143.861741	144.964689	ODBLOKUJ
145.440698	146.381106	PALNIK
146.857115	147.797523	CISZEJ
148.296752	149.306820	OKAP
