0.912637	1.977379	OTWORZ
2.737910	3.599844	WLACZ
4.740640	5.501171	SWIATLO
6.591264	7.402497	TELEWIZOR
8.416538	9.202419	ZAMKNIJ
10.140407	10.698129	KUCHNI
11.636117	12.092435	NA
13.169853	13.714900	DRZWI
14.728941	15.476796	LAZIENCE
16.250002	16.947155	WYLACZ
17.593606	18.024573	W
19.114667	19.659714	OKNO
20.470946	21.244152	PIEKARNIK
21.966656	22.625782	ROLETY
23.614472	24.476407	TEMPERATURE
25.376368	25.984792	RADIO
26.669270	27.112912	DO
28.114278	28.735378	POKOJU
29.698716	30.294465	USTAW
31.270479	32.043685	SYPIALNI
33.007024	33.628124	PRALKE
34.299926	35.009754	GARAZU
35.947742	36.632219	ALARM
37.430776	37.975823	BRAME
38.964513	39.623639	CZAJNIK
40.510925	41.093998	ZGAS
41.943257	42.526331	ZAPAL
43.185457	43.907961	SALONIE
44.744545	45.264240	WODE
45.885340	46.582493	KOMPUTER
47.507805	48.179607	PODNIES
48.952813	49.700668	ZWIEKSZ
50.258391	51.069623	OGRZEWANIE
51.792127	52.641386	PRZEDPOKOJU
53.401917	54.365256	KLIMATYZACJA
55.214515	55.759561	ZMIEN
56.735576	57.267947	OKNA
57.939749	58.598875	MUZYKE
59.321379	60.183314	ZMYWARKE
60.867791	61.615646	PIWNICY
62.325475	63.086005	ZMNIEJSZ
63.745132	64.543689	ZASLON
66.330935	66.901333	KANAL
67.699890	68.308315	OPUSC
68.954766	69.677270	ZASUN
70.323721	71.109602	LODOWKE
72.161669	72.934875	ZAGOTUJ
73.670055	74.582691	PODLEJ
75.089712	75.698136	BUDZIK
76.293885	77.320601	ZALUZJE
78.448721	79.437411	PODGLOSNIJ
80.083862	80.578207	KAWE
81.630274	82.162645	O
83.151335	83.848488	ODSLON
84.583668	85.255469	EKSPRES
86.054027	86.586398	JEDEN
87.739869	88.753910	KORYTARZU
89.273606	89.932732	GARAZ
90.579183	91.225634	STRYCHU
91.922787	92.746695	PRZYCIEMNIJ
93.355119	94.026921	PRZYCISZ
94.686048	95.218419	UCHYL
95.839519	96.714129	ROZJASNIJ
97.322553	98.108435	ZABLOKUJ
98.830939	99.464714	STOPNI
100.250596	100.694239	ZROB
101.644902	102.354730	DOMU
102.925128	103.736361	HERBATE
104.129302	104.965885	SPRAWDZ
105.688389	106.410893	PRZYGOTUJ
107.070019	107.830550	SCHODACH
108.654458	109.186829	PODAJ
109.871307	110.707890	SUSZARKE
111.417719	112.292329	WEJSCIOWE
112.989482	114.079576	LAZIENKI
114.535894	115.131643	WODY
115.993577	116.868187	ZEWNATRZ
117.375208	117.882228	DWA
118.883593	119.694826	ZADZWON
120.417330	120.898999	PUSC
121.659530	122.407385	CZTERY
123.167915	124.270684	GLOSNIEJ
124.524195	125.436831	PROGRAM
125.842447	126.501574	SCISZ
127.284738	128.007995	STOPIEN
128.627930	129.058441	Z
129.971123	130.814924	GARDEROBIE
131.598453	132.321711	ZAKREC
135.137249	135.808846	LAMPKE
136.609595	137.324243	TARASIE
138.099162	138.796589	LOZKO
139.399303	140.277545	GABINECIE
141.672399	142.361216	KWIATKI
142.912269	143.799121	OSWIETLENIE
144.487938	144.884007	TRZY
145.788079	146.485506	STACJE
147.131272	147.871750	ODBLOKUJ
148.551957	149.180502	PALNIK
149.860709	150.472034	CISZEJ
151.229732	151.737735	OKAP
