1.514174	2.164681	OTWORZ
2.829888	3.392191	WLACZ
3.939793	4.560898	SWIATLO
5.130551	5.740631	TELEWIZOR
6.358061	6.975491	ZAMKNIJ
7.460615	8.033943	KUCHNI
8.625647	8.978464	NA
9.643672	10.121445	DRZWI
10.801354	11.459211	LAZIENCE
12.091342	12.690396	WYLACZ
13.182870	13.609191	W
14.314825	14.844051	OKNO
15.325500	15.865751	PIEKARNIK
16.479506	17.104287	ROLETY
17.721717	18.493505	TEMPERATURE
19.066833	19.577683	RADIO
20.176737	20.558956	DO
21.352795	21.893046	POKOJU
22.708936	23.241837	USTAW
23.936446	24.612679	SYPIALNI
25.299938	25.869591	PRALKE
26.479671	27.126502	GARAZU
27.927692	28.515720	ALARM
28.986143	29.574172	BRAME
30.309208	30.845784	CZAJNIK
31.294156	31.882185	ZGAS
32.517991	33.080294	ZAPAL
33.469863	34.142421	SALONIE
34.848055	35.469161	WODE
36.035138	36.737098	KOMPUTER
37.564013	38.159392	PODNIES
38.780498	39.368526	ZWIEKSZ
39.857325	40.603387	OGRZEWANIE
41.066460	41.790470	PRZEDPOKOJU
42.554907	43.561907	KLIMATYZACJE
44.024979	44.649760	ZMIEN
45.190011	45.741288	OKNA
46.325642	46.994525	MUZYKE
47.707510	48.435195	ZMYWARKE
48.949720	49.644329	PIWNICY
50.261760	50.879190	ZMNIEJSZ
51.548072	52.279433	ZASLON
52.790283	53.264381	KANAL
53.962666	54.543344	OPUSC
55.083595	55.848033	ZASUN
56.347857	57.042466	LODOWKE
57.722375	58.483137	ZAGOTUJ
59.192447	59.732698	PODLEJ
60.622091	61.147642	BUDZIK
61.838576	62.529510	ZALUZJE
63.246170	64.087786	PODGLOSNIJ
64.650089	65.366749	KAWE
66.024606	66.384773	O
67.325620	67.998177	ODSLON
68.567830	69.210987	EKSPRES
69.901921	70.438497	JEDEN
71.048577	71.765237	KORYTARZU
72.540700	73.136079	GARAZ
73.804962	74.407691	STRYCHU
75.120676	75.943916	PRZYCIEMNIJ
76.473142	77.119974	PRZYCISZ
77.799882	78.432013	UCHYL
78.862009	79.725676	ROZJASNIJ
80.210800	81.041391	ZABLOKUJ
81.625744	82.301977	STOPNI
83.025988	83.492736	ZROB
84.249823	84.797424	DOMU
85.414855	86.142540	HERBATE
86.785697	87.487656	SPRAWDZ
88.163889	88.965078	PRZYGOTUJ
89.608235	90.313869	SCHODACH
91.151810	91.739839	PODAJ
92.298467	93.198886	SUSZARKE
93.757513	94.433746	WEJSCIOWE
95.069552	95.767836	LAZIENKI
96.311763	96.881416	WODY
97.631152	98.380889	ZEWNATRZ
98.755758	99.248232	DWA
100.126600	100.854285	ZADZWON
101.416588	101.993591	SPUSC
102.655123	103.221101	CZTERY
103.963487	104.613994	GLOSNIEJ
105.371081	105.929709	PROGRAM
106.521413	106.984485	SCISZ
107.723196	108.281824	STOPIEN
108.855152	109.215319	Z
110.101038	110.880176	GARDEROBIE
111.479230	112.214266	ZAKREC
112.798620	113.515280	LAMPKE
113.956301	114.606808	TARASIE
115.345519	116.007052	LOZKO
116.547303	117.333792	GABINECIE
118.032076	118.656856	KWIATKI
119.270611	120.101202	OSWIETLENIE
120.626753	121.049398	TRZY
121.604351	122.295284	STACJE
122.857587	123.610999	ODBLOKUJ
124.265181	124.643724	PALNIK
125.297906	125.856534	CISZEJ
126.540117	127.223701	OKAP
