0.790000	1.610000	OTWORZ
1.910000	2.690000	WLACZ
3.230000	3.910000	SWIATLO
4.350000	5.290000	TELEWIZOR
5.580000	6.480000	ZAMKNIJ
6.750000	7.590000	KUCHNI
7.870000	8.570000	NA
9.030000	9.900000	DRZWI
10.270000	11.340000	LAZIENCE
11.650000	12.490000	WYLACZ
12.880000	13.600000	W
14.040000	14.920000	OKNO
15.160000	16.160000	PIEKARNIK
16.360000	17.280000	ROLETY
17.550000	18.750000	TEMPERATURE
19.000000	19.880000	RADIO
20.190000	20.930000	DO
21.320000	22.240000	POKOJU
22.640000	23.490000	USTAW
23.870000	24.900000	SYPIALNI
25.210000	26.140000	PRALKE
26.290000	27.360000	GARAZU
27.730000	28.610000	ALARM
28.900000	29.780000	BRAME
30.160000	30.940000	CZAJNIK
31.430000	32.040000	ZGAS
32.580000	33.550000	ZAPAL
33.920000	34.800000	SALONIE
35.200000	36.020000	WODE
36.450000	37.430000	KOMPUTER
37.870000	38.640000	PODNIES
39.170000	39.820000	ZWIEKSZ
40.300000	41.390000	OGRZEWANIE
41.650000	42.700000	PRZEDPOKOJU
42.980000	44.280000	KLIMATYZACJE
44.640000	45.340000	ZMIEN
45.870000	46.740000	OKNA
46.890000	47.860000	MUZYKE
48.150000	49.210000	ZMYWARKE
49.590000	50.580000	PIWNICY
50.980000	51.680000	ZMNIEJSZ
52.210000	53.150000	ZASLON
53.470000	54.250000	KANAL
54.610000	55.400000	OPUSC
55.880000	56.790000	ZASUN
56.970000	58.010000	LODOWKE
58.390000	59.330000	ZAGOTUJ
59.610000	60.430000	PODLEJ
60.720000	61.580000	BUDZIK
62.010000	62.920000	ZALUZJE
63.180000	64.250000	PODGLOSNIJ
64.530000	65.280000	KAWE
65.740000	66.340000	O
66.840000	67.820000	ODSLON
68.070000	69.020000	EKSPRES
69.280000	70.100000	JEDEN
70.410000	71.470000	KORYTARZU
71.690000	72.530000	GARAZ
73.140000	73.900000	STRYCHU
74.130000	75.180000	PRZYCIEMNIJ
75.450000	76.170000	PRZYCISZ
76.630000	77.440000	UCHYL
77.740000	78.850000	ROZJASNIJ
78.930000	79.910000	ZABLOKUJ
80.340000	81.170000	STOPNI
81.490000	82.100000	ZROB
82.570000	83.360000	DOMU
83.590000	84.500000	HERBATE
84.960000	85.570000	SPRAWDZ
86.060000	87.060000	PRZYGOTUJ
87.470000	88.150000	SCHODACH
88.620000	89.380000	PODAJ
89.710000	90.760000	SUSZARKE
91.030000	92.060000	WEJSCIOWE
92.370000	93.440000	LAZIENKI
93.770000	94.600000	WODY
94.980000	95.900000	ZEWNATRZ
96.240000	97.030000	DWA
97.480000	98.420000	ZADZWON
98.710000	99.290000	SPUSC
99.920000	100.620000	CZTERY
100.980000	102.000000	GLOSNIEJ
102.090000	102.970000	PROGRAM
103.260000	104.020000	SCISZ
104.630000	105.430000	STOPIEN
105.730000	106.490000	Z
106.870000	108.030000	GARDEROBIE
108.460000	109.570000	ZAKREC
109.600000	110.630000	LAMPKE
110.830000	111.770000	TARASIE
112.130000	113.110000	LOZKO
113.280000	114.480000	GABINECIE
114.940000	115.880000	KWIATKI
116.020000	117.160000	OSWIETLENIE
117.520000	118.230000	TRZY
118.790000	119.740000	STACJE
119.900000	120.960000	ODBLOKUJ
121.310000	122.150000	PALNIK
122.620000	123.460000	CISZEJ
123.780000	124.540000	OKAP