1.230000	2.190000	OTWORZ
3.280000	4.110000	WLACZ
5.340000	6.360000	SWIATLO
7.650000	8.660000	TELEWIZOR
10.160000	11.200000	ZAMKNIJ
12.670000	13.590000	KUCHNI
14.980000	15.650000	NA
17.360000	18.140000	DRZWI
19.690000	20.850000	LAZIENCE
22.470000	23.620000	WYLACZ
25.230000	25.870000	W
27.270000	28.240000	OKNO
29.540000	30.540000	PIEKARNIK
31.770000	32.810000	ROLETY
34.050000	35.390000	TEMPERATURE
36.840000	37.970000	RADIO
39.070000	39.960000	DO
41.040000	42.130000	POKOJU
43.270000	44.100000	USTAW
45.280000	46.490000	SYPIALNI
47.770000	48.610000	PRALKE
49.900000	50.850000	GARAZU
52.160000	53.140000	ALARM
54.270000	55.110000	BRAME
56.320000	57.380000	CZAJNIK
58.220000	59.120000	ZGAS
60.330000	61.080000	ZAPAL
62.230000	63.330000	SALONIE
64.390000	65.380000	WODE
66.320000	67.260000	KOMPUTER
68.380000	69.340000	PODNIES
70.100000	71.130000	ZWIEKSZ
71.740000	73.240000	OGRZEWANIE
73.770000	74.890000	PRZEDPOKOJU
76.029447	77.480000	KLIMATYZACJE
78.310000	79.480000	ZMIEN
80.360000	81.190000	OKNA
82.480000	83.590000	MUZYKE
84.670000	85.870000	ZMYWARKE
87.040000	88.080000	PIWNICY
89.260000	90.290000	ZMNIEJSZ
91.540000	92.630000	ZASLON
93.790000	94.640000	KANAL
95.930000	97.190000	OPUSC
98.410000	99.310000	ZASUN
100.850000	102.060000	LODOWKE
103.940000	104.940000	ZAGOTUJ
106.140000	106.890000	PODLEJ
108.131213	108.870000	BUDZIK
110.410000	111.410000	ZALUZJE
112.550000	113.680000	PODGLOSNIJ
114.903148	115.940000	KAWE
117.520031	118.430000	O
119.517652	120.500000	ODSLON
121.415392	122.600000	EKSPRES
123.780000	124.610000	JEDEN
126.090000	127.390000	KORYTARZU
128.710000	129.650000	GARAZ
130.990000	131.990000	STRYCHU
133.140000	134.200000	PRZYCIEMNIJ
135.480000	136.420000	PRZYCISZ
137.656049	138.490000	UCHYL
139.493860	140.680000	ROZJASNIJ
141.780000	143.100000	ZABLOKUJ
144.140000	145.090000	STOPNI
146.545461	147.550000	ZROB
148.780000	149.690000	DOMU
150.740465	151.760000	HERBATE
153.230000	154.495992	SPRAWDZ
155.055326	156.530000	PRZYGOTUJ
157.140000	158.430000	SCHODACH
159.150000	160.090000	PODAJ
161.180000	162.250000	SUSZARKE
163.405381	164.420000	WEJSCIOWE
165.722621	166.780000	LAZIENKI
168.300000	168.978743	WODY
170.177315	171.635578	ZEWNATRZ
172.690000	173.430000	DWA
174.880000	176.320000	ZADZWON
176.900000	178.100000	SPUSC
179.240000	180.110000	CZTERY
181.600000	182.660000	GLOSNIEJ
183.830000	184.660000	PROGRAM
185.730000	186.830000	SCISZ
188.300000	189.320000	STOPIEN
190.580000	191.210000	Z
192.480000	193.500000	GARDEROBIE
194.508336	195.670000	ZAKREC
196.470000	197.460000	LAMPKE
198.520000	199.390000	TARASIE
200.641032	201.720000	LOZKO
202.560000	203.530000	GABINECIE
204.616298	205.780000	KWIATKI
206.534014	207.640000	OSWIETLENIE
208.360000	209.170000	TRZY
209.560000	210.760000	STACJE
211.707851	212.660000	ODBLOKUJ
213.440000	214.200000	PALNIK
215.310000	216.210000	CISZEJ
217.070000	217.560880	OKAP
