1.201795	1.872735	OTWORZ
2.669016	3.317838	WLACZ
4.180476	4.917773	SWIATLO
5.861514	6.576692	TELEWIZOR
7.476195	8.287222	ZAMKNIJ
9.105622	9.658595	KUCHNI
10.454876	10.830897	NA
11.752519	12.276000	DRZWI
13.182876	13.920173	LAZIENCE
14.554249	15.232562	WYLACZ
15.792908	16.191049	W
17.142162	17.687762	OKNO
18.292346	19.059135	PIEKARNIK
19.479395	20.150335	ROLETY
20.710681	21.595438	TEMPERATURY
22.310616	22.974184	RADIO
23.571395	23.954789	DO
24.662595	25.318789	POKOJU
26.033968	26.675416	USTAW
27.073557	27.921449	SYPIALNI
28.570270	29.145362	PRALKE
29.713081	30.354530	GARAZU
31.091827	31.681665	ALARM
32.330486	32.883459	BRAME
33.620757	34.313816	CZAJNIK
34.852043	35.390270	ZGAS
36.142314	36.687914	ZAPAL
37.218768	37.904454	SALONIE
38.509038	39.128368	WODE
39.644476	40.337535	KOMPUTER
41.015849	41.657297	PODNIES
42.099676	42.763243	ZWIEKSZ
43.227741	44.024022	OGRZEWANIE
44.495892	45.314292	PRZEDPOKOJU
45.793535	46.759395	KLIMATYZACJE
47.349232	47.953816	ZMIEN
48.668995	49.199849	OKNA
49.612735	50.246811	MUZYKE
50.726054	51.566573	ZMYWARKE
51.986832	52.709384	PIWNICY
53.218119	53.999654	ZMNIEJSZ
54.538110	55.238543	ZASLON
55.902110	56.410845	KANAL
57.081786	57.737981	OPUSC
58.342335	58.976411	ZASUN
59.396670	60.133968	LODOWKE
60.900757	61.601189	ZAGOTUJ
62.404843	62.928324	PODLEJ
63.672995	64.277578	BUDZIK
64.860043	65.567849	ZALUZJE
67.101427	67.927200	PODGLOSNIJ
68.517038	68.996281	KAWE
69.814681	70.131719	O
71.068086	71.739027	ODSLON
72.350984	73.058789	EKSPRES
73.493795	74.091005	JEDEN
74.843049	75.602465	KORYTARZU
76.266032	76.936973	GARAZ
77.290876	78.050292	STRYCHU
78.559027	79.347935	PRZYCIEMNIJ
79.871416	80.571849	PRZYCISZ
81.080584	81.722032	UCHYL
82.120173	83.019676	ROZJASNIJ
83.557903	84.324692	ZABLOKUJ
86.367005	87.229643	STOPNI
87.745751	88.136519	ZROB
89.021276	89.485773	DOMU
89.987135	90.672822	HERBATE
91.174184	91.859870	SPRAWDZ
92.405470	93.128022	PRZYGOTUJ
93.651503	94.440411	SCHODACH
94.949146	95.465254	PODAJ
95.944497	96.777643	SUSZARKE
97.220022	98.060541	WEJSCIOWE
98.620886	99.424541	LAZIENKI
99.896411	100.478876	WODY
101.120324	101.975589	ZEWNATRZ
102.425341	102.830854	DWA
103.605016	104.342314	ZADZWON
104.769946	105.448259	SPUSC
106.192930	106.760649	CZTERY
107.512692	108.191005	GLOSNIEJ
108.802962	109.385427	PROGRAM
109.835178	110.491373	SCISZ
111.095957	111.818508	STOPIEN
112.341989	112.821232	Z
113.477427	114.273708	GARDEROBIE
114.856173	115.659827	ZAKREC
116.072714	116.765773	LAMPKE
117.333492	117.997059	TARASIE
118.609016	119.235719	LOZKO
119.626486	120.393276	GABINECIE
120.983114	121.631935	KWIATKI
122.059568	122.892714	OSWIETLENIE
123.526789	123.954422	TRZY
124.699092	125.392151	STACJE
125.797665	126.549708	ODBLOKUJ
127.102681	127.795741	PALNIK
128.260238	128.842703	CISZEJ
129.417795	130.044497	OKAP
