1.320601	1.976390	OTWORZ
2.505833	3.167638	WLACZ
3.751230	4.419051	SWIATLO
5.029716	5.775751	TELEWIZOR
6.473654	7.252779	ZAMKNIJ
8.101092	8.690700	KUCHNI
9.647309	10.098539	NA
11.211574	11.774108	DRZWI
12.884135	13.765539	LAZIENCE
14.586779	15.341838	WYLACZ
16.250315	16.614308	W
17.907835	18.485410	OKNO
19.348765	20.100816	PIEKARNIK
20.970186	21.734270	ROLETY
22.684862	23.632446	TEMPERATURE
24.450678	25.088417	RADIO
26.081124	26.484223	DO
27.916128	28.535818	POKOJU
29.715034	30.370822	USTAW
31.312390	32.151679	SYPIALNI
33.219591	33.872371	PRALKE
34.627430	35.352407	GARAZU
36.700082	37.226518	ALARM
38.174102	38.820866	BRAME
40.018131	40.667903	CZAJNIK
41.612479	42.271275	ZGAS
43.200810	43.895705	ZAPAL
44.879388	45.601356	SALONIE
46.816671	47.478475	WODE
48.579478	49.277381	KOMPUTER
50.480662	51.169541	PODNIES
51.924600	52.784946	ZWIEKSZ
53.458784	54.328155	OGRZEWANIE
55.074189	55.880388	PRZEDPOKOJU
56.779840	57.784580	KLIMATYZACJE
58.819402	59.402994	ZMIEN
60.588226	61.201900	OKNA
62.059238	62.823321	MUZYKE
64.011562	64.850850	ZMYWARKE
65.927787	66.740002	PIWNICY
67.964341	68.767531	ZMNIEJSZ
69.829427	70.533347	ZASLON
71.709554	72.257047	KANAL
73.484394	74.245470	OPUSC
75.054677	75.960146	ZASUN
76.760328	77.536444	LODOWKE
78.613381	79.383481	ZAGOTUJ
80.902624	81.537355	PODLEJ
83.158777	83.817573	BUDZIK
84.653854	85.451028	ZALUZJE
86.293325	87.078466	PODGLOSNIJ
88.004993	88.558502	KAWE
89.638447	89.945284	O
91.253852	91.945739	ODSLON
92.893323	93.723587	EKSPRES
94.629057	95.227689	JEDEN
96.220396	97.020578	KORYTARZU
98.067433	98.741271	GARAZ
100.034798	100.795874	STRYCHU
101.945007	102.712099	PRZYCIEMNIJ
104.017660	104.691497	PRZYCISZ
105.897787	106.463329	UCHYL
107.486118	108.325407	ROZJASNIJ
109.327139	110.229600	ZABLOKUJ
111.571258	112.380465	STOPNI
113.325041	113.887575	ZROB
114.880282	115.424767	DOMU
116.372351	117.196599	HERBATE
118.435979	119.272259	SPRAWDZ
120.289032	121.161411	PRZYGOTUJ
122.436889	123.228047	SCHODACH
124.109451	124.656944	PODAJ
125.511273	126.374628	SUSZARKE
127.262048	128.161501	WEJSCIOWE
129.106077	129.933332	LAZIENKI
130.799695	131.335155	WODY
132.192493	133.034790	ZEWNATRZ
133.994407	134.412547	DWA
135.381189	136.094133	ZADZWON
137.156029	137.853932	SPUSC
138.936885	139.577633	CZTERY
140.492127	141.235153	GLOSNIEJ
142.197778	142.787386	PROGRAM
143.849282	144.438890	SCISZ
145.386474	146.243812	STOPIEN
147.104158	147.468150	Z
148.551104	149.396409	GARDEROBIE
150.262772	151.044904	ZAKREC
151.857119	152.539982	LAMPKE
153.421385	154.140346	TARASIE
154.916462	155.587292	LOZKO
156.420564	157.256845	GABINECIE
158.066051	158.794037	KWIATKI
159.627309	160.496680	OSWIETLENIE
161.326944	161.871429	TRZY
162.668603	163.540982	STACJE
164.320106	165.153379	ODBLOKUJ
166.112996	166.795858	PALNIK
167.611081	168.197681	CISZEJ
169.187380	169.671700	OKAP
