3.712342	4.484509	OTWORZ
5.739000	6.638000	WLACZ
7.699000	8.657000	SWIATLO
9.615000	10.610000	TELEWIZOR
11.516000	12.600000	ZAMKNIJ
13.751000	14.604000	KUCHNI
15.688000	16.178000	NA
17.166000	17.901000	DRZWI
18.977000	19.906000	LAZIENCE
20.849000	21.732000	WYLACZ
22.497000	22.979000	W
24.108000	24.888000	OKNO
25.734000	26.803000	PIEKARNIK
27.568000	28.615000	ROLETY
29.276000	30.434000	TEMPERATURE
31.295000	32.134000	RADIO
32.914000	33.508000	DO
34.354000	35.327000	POKOJU
36.025000	36.834000	USTAW
37.532000	38.779000	SYPIALNI
39.536000	40.509000	PRALKE
41.185000	42.209000	GARAZU
43.293000	44.155000	ALARM
45.016000	45.944000	BRAME
46.872000	47.770000	CZAJNIK
48.498000	49.255000	ZGAS
50.480000	51.379000	ZAPAL
52.344000	53.317000	SALONIE
53.955000	54.757000	WODE
55.522000	56.465000	KOMPUTER
57.311000	58.128000	PODNIES
58.885000	59.836000	ZWIEKSZ
60.548000	61.684000	OGRZEWANIE
62.241000	63.511000	PRZEDPOKOJU
64.120000	65.486000	KLIMATYZACJE
66.221000	66.904000	ZMIEN
67.839000	68.545000	OKNA
69.109000	69.992000	MUZYKE
70.579000	71.604000	ZMYWARKE
72.198000	73.148000	PIWNICY
73.846000	74.974000	ZMNIEJSZ
75.524000	76.541000	ZASLON
77.313000	78.011000	KANAL
78.761000	79.786000	OPUSC
80.521000	81.375000	ZASUN
82.087000	83.253000	LODOWKE
84.047000	85.131000	ZAGOTUJ
85.673000	86.594000	PODLEJ
87.337000	88.116000	BUDZIK
88.963000	90.017000	ZALUZJE
90.789000	92.155000	PODGLOSNIJ
92.779000	93.573000	KAWE
94.368000	94.784000	O
95.830000	96.736000	ODSLON
97.568000	98.526000	EKSPRES
99.313000	100.189000	JEDEN
100.872000	101.933000	KORYTARZU
102.646000	103.508000	GARAZ
104.191000	105.119000	STRYCHU
105.735000	106.878000	PRZYCIEMNIJ
107.465000	108.393000	PRZYCISZ
109.291000	109.967000	UCHYL
110.821000	111.994000	ROZJASNIJ
112.907000	114.028000	ZABLOKUJ
114.786000	115.699000	STOPNI
116.508000	117.154000	ZROB
117.934000	118.788000	DOMU
119.359225	120.339000	HERBATE
120.881000	121.884000	SPRAWDZ
122.537000	123.614000	PRZYGOTUJ
124.304000	125.269000	SCHODACH
126.056000	126.754000	PODAJ
127.237000	128.299000	SUSZARKE
129.056000	130.177000	WEJSCIOWE
130.882000	131.989000	LAZIENKI
132.694000	133.563000	WODY
134.142000	135.285000	ZEWNATRZ
136.072000	136.703000	DWA
137.832000	138.827000	ZADZWON
139.851000	140.876000	SPUSC
141.685000	142.517000	CZTERY
143.504000	144.596000	GLOSNIEJ
145.286000	146.088000	PROGRAM
146.712000	147.454000	SCISZ
148.115000	149.103000	STOPIEN
149.600000	150.246000	Z
151.144000	152.295000	GARDEROBIE
152.518000	153.728000	ZAKREC
154.270000	155.295000	LAMPKE
156.178000	157.121000	TARASIE
157.893000	158.725000	LOZKO
159.438000	160.722000	GABINECIE
161.390000	162.452000	KWIATKI
163.128000	164.353000	OSWIETLENIE
165.036000	165.778000	TRZY
166.380000	167.293000	STACJE
167.924000	168.889000	ODBLOKUJ
169.661000	170.552000	PALNIK
171.391000	172.268000	CISZEJ
173.300000	174.042000	OKAP
