1.214000	2.009000	OTWORZ
2.785000	3.661000	WLACZ
4.815000	5.730000	SWIATLO
6.744000	7.759000	TELEWIZOR
8.654000	9.709000	ZAMKNIJ
10.485000	11.281000	KUCHNI
12.315000	12.932000	NA
13.986000	14.822000	DRZWI
15.856000	16.971000	LAZIENCE
17.766000	18.841000	WYLACZ
19.816000	20.492000	W
21.725000	22.402000	OKNO
23.417000	24.372000	PIEKARNIK
25.187000	26.083000	ROLETY
27.037000	28.132000	TEMPERATURE
29.206000	29.942000	RADIO
30.798000	31.375000	DO
32.548000	33.404000	POKOJU
34.438000	35.254000	USTAW
36.070000	37.104000	SYPIALNI
38.020000	38.895000	PRALKE
39.830000	40.646000	GARAZU
41.999000	42.715000	ALARM
43.729000	44.505000	BRAME
45.779000	46.555000	CZAJNIK
47.390000	48.186000	ZGAS
49.240000	49.996000	ZAPAL
50.713000	51.568000	SALONIE
52.463000	53.200000	WODE
53.956000	54.791000	KOMPUTER
55.905000	56.781000	PODNIES
57.656000	58.691000	ZWIEKSZ
59.467000	60.481000	OGRZEWANIE
61.277000	62.371000	PRZEDPOKOJU
63.446000	64.659000	KLIMATYZACJE
65.554000	66.310000	ZMIEN
67.365000	68.041000	OKNA
69.056000	70.071000	MUZYKE
71.165000	72.219000	ZMYWARKE
73.413000	74.348000	PIWNICY
75.363000	76.377000	ZMNIEJSZ
77.034000	78.009000	ZASLON
78.964000	79.680000	KANAL
81.729000	82.605000	OPUSC
83.619000	84.415000	ZASUN
85.330000	86.345000	LODOWKE
87.419000	88.434000	ZAGOTUJ
89.409000	90.145000	PODLEJ
91.100000	91.876000	BUDZIK
92.771000	93.746000	ZALUZJE
94.542000	95.636000	PODGLOSNIJ
96.352000	97.088000	KAWE
98.023000	98.421000	O
99.814000	100.729000	ODSLON
101.545000	102.599000	EKSPRES
103.673000	104.549000	JEDEN
105.444000	106.379000	KORYTARZU
107.553000	108.369000	GARAZ
109.423000	110.398000	STRYCHU
111.413000	112.368000	PRZYCIEMNIJ
113.144000	114.019000	PRZYCISZ
115.332000	115.969000	UCHYL
116.924000	118.018000	ROZJASNIJ
118.973000	120.107000	ZABLOKUJ
120.903000	121.957000	STOPNI
122.733000	123.489000	ZROB
124.325000	125.081000	DOMU
125.956000	126.971000	HERBATE
127.786000	128.841000	SPRAWDZ
129.736000	130.731000	PRZYGOTUJ
131.706000	132.561000	SCHODACH
133.695000	134.451000	PODAJ
135.625000	136.620000	SUSZARKE
137.495000	138.550000	WEJSCIOWE
139.485000	140.519000	LAZIENKI
141.653000	142.489000	WODY
143.603000	144.618000	ZEWNATRZ
145.473000	146.189000	DWA
147.343000	148.278000	ZADZWON
149.193000	150.248000	SPUSC
151.322000	152.297000	CZTERY
153.471000	154.466000	GLOSNIEJ
155.480000	156.336000	PROGRAM
157.350000	158.106000	SCISZ
159.101000	160.176000	STOPIEN
160.991000	161.727000	Z
162.762000	163.796000	GARDEROBIE
164.692000	165.667000	ZAKREC
166.482000	167.537000	LAMPKE
168.293000	169.208000	TARASIE
170.183000	170.979000	LOZKO
172.013000	172.988000	GABINECIE
173.844000	174.759000	KWIATKI
175.694000	176.609000	OSWIETLENIE
177.604000	178.161000	TRZY
179.275000	180.190000	STACJE
180.906000	182.120000	ODBLOKUJ
182.916000	183.771000	PALNIK
184.945000	185.761000	CISZEJ
186.815000	187.591000	OKAP
