1.070000	1.880000	OTWORZ
3.080000	3.822301	WLACZ
5.280000	6.260000	SWIATLO
7.530000	8.510000	TELEWIZOR
9.660000	10.420000	ZAMKNIJ
11.750000	12.610000	KUCHNI
13.640000	14.230000	NA
15.470000	16.150000	DRZWI
17.420000	18.410000	LAZIENCE
19.870000	21.090000	WYLACZ
21.940000	22.570000	W
24.070000	24.760000	OKNO
25.750000	26.680000	PIEKARNIK
27.670000	28.570000	ROLETY
29.530000	30.660000	TEMPERATURE
31.620000	32.390000	RADIO
33.530000	34.170000	DO
35.350000	36.210000	POKOJU
37.600000	38.320000	USTAW
39.840000	40.840000	SYPIALNI
42.020000	42.870000	PRALKE
43.850000	44.760000	GARAZU
46.180000	46.950000	ALARM
48.090000	48.890000	BRAME
50.270000	51.050000	CZAJNIK
52.225302	53.200000	ZGAS
54.440000	55.230000	ZAPAL
56.450000	57.350000	SALONIE
58.775073	59.520000	WODE
60.600000	61.520000	KOMPUTER
62.610000	63.460000	PODNIES
64.420000	65.120000	ZWIEKSZ
66.540000	67.470000	OGRZEWANIE
68.450000	69.470000	PRZEDPOKOJU
70.750000	72.000000	KLIMATYZACJE
73.050000	73.800000	ZMIEN
75.010000	75.780000	OKNA
76.940000	77.830000	MUZYKE
78.990000	80.000000	ZMYWARKE
81.120000	82.040000	PIWNICY
83.400000	84.330000	ZMNIEJSZ
85.270000	86.230000	ZASLON
87.230000	87.910000	KANAL
89.070000	89.990000	OPUSC
90.920000	91.770000	ZASUN
92.580000	93.450000	LODOWKE
94.790000	95.690000	ZAGOTUJ
96.580000	97.360000	PODLEJ
98.400000	99.030000	BUDZIK
100.150000	100.970000	ZALUZJE
102.010000	102.910000	PODGLOSNIJ
104.000000	104.720000	KAWE
105.810000	106.270000	O
107.520000	108.420000	ODSLON
109.502187	110.460000	EKSPRES
111.480000	112.220000	JEDEN
113.430000	114.330000	KORYTARZU
115.700000	116.510000	GARAZ
117.400000	118.290000	STRYCHU
119.410000	120.320000	PRZYCIEMNIJ
121.490000	122.310000	PRZYCISZ
123.700000	124.380000	UCHYL
125.700000	126.750000	ROZJASNIJ
127.790000	128.810000	ZABLOKUJ
129.690000	130.860000	STOPNI
132.220000	132.960000	ZROB
134.070000	134.880000	DOMU
135.820000	136.870000	HERBATE
137.980000	139.100000	SPRAWDZ
140.190000	141.150000	PRZYGOTUJ
142.670000	143.460000	SCHODACH
144.810000	145.550000	PODAJ
146.900000	147.890000	SUSZARKE
149.160000	150.240000	WEJSCIOWE
151.280000	152.280000	LAZIENKI
153.450000	154.150000	WODY
155.480000	156.430000	ZEWNATRZ
157.690000	158.330000	DWA
159.770000	161.110000	ZADZWON
161.520000	162.720000	SPUSC
164.320000	165.100000	CZTERY
166.550000	167.550000	GLOSNIEJ
168.690000	169.570000	PROGRAM
170.430000	171.280000	SCISZ
172.330000	173.220000	STOPIEN
174.290000	174.920000	Z
176.150000	177.220000	GARDEROBIE
178.470000	179.480000	ZAKREC
180.370000	181.230000	LAMPKE
182.470000	183.390000	TARASIE
184.610000	185.410000	LOZKO
186.460000	187.470000	GABINECIE
188.150000	189.350000	KWIATKI
190.060000	191.160000	OSWIETLENIE
192.120000	192.780000	TRZY
193.950000	194.840000	STACJE
195.650000	196.610000	ODBLOKUJ
197.720000	198.430000	PALNIK
199.490000	200.290000	CISZEJ
201.310000	201.986493	OKAP
